…
> cleanEx()
> nameEx("add_splines")
> ### * add_splines
> 
> flush(stderr()); flush(stdout())
> 
> ### Name: add_splines
> ### Title: Add spline terms to a data frame
> ### Aliases: add_splines
> 
> ### ** Examples
> 
> trial %>%
+   add_splines(age)
# A tibble: 200 x 11
   trt     age spage1   spage2  spage3 marker stage grade response death ttdeath
   <chr> <dbl>  <dbl>    <dbl>   <dbl>  <dbl> <fct> <fct>    <int> <int>   <dbl>
 1 Drug~    23  0      0        0       0.16  T1    II           0     0    24  
 2 Drug~     9  0      0        0       1.11  T2    I            1     0    24  
 3 Drug~    31  0.178  0        0       0.277 T1    II           0     0    24  
 4 Drug~    NA NA     NA       NA       2.07  T3    III          1     1    17.6
 5 Drug~    51  9.59   1.05e+0  0.0305  2.77  T4    III          1     1    16.4
 6 Drug~    39  1.67   4.77e-4  0       0.613 T4    I            0     1    15.6
 7 Drug~    37  1.10   0        0       0.354 T1    II           0     0    24  
 8 Drug~    32  0.263  0        0       1.74  T1    I            0     1    18.4
 9 Drug~    31  0.178  0        0       0.144 T1    II           0     0    24  
10 Drug~    34  0.506  0        0       0.205 T3    I            0     1    10.5
# ... with 190 more rows
…
